%YAML 1.1
%TAG !u! tag:unity3d.com,2011:
--- !u!74 &7400000
AnimationClip:
  m_ObjectHideFlags: 0
  m_CorrespondingSourceObject: {fileID: 0}
  m_PrefabInstance: {fileID: 0}
  m_PrefabAsset: {fileID: 0}
  m_Name: Timepire Death
  serializedVersion: 6
  m_Legacy: 0
  m_Compressed: 0
  m_UseHighQualityCurve: 1
  m_RotationCurves: []
  m_CompressedRotationCurves: []
  m_EulerCurves: []
  m_PositionCurves: []
  m_ScaleCurves: []
  m_FloatCurves: []
  m_PPtrCurves:
  - curve:
    - time: 0
      value: {fileID: 21300000, guid: f8f90edc6917cef4e8b4e1a7c16bd5cf, type: 3}
    - time: 0.083333336
      value: {fileID: 21300000, guid: 647be05e02baf704491e91c82278595b, type: 3}
    - time: 0.16666667
      value: {fileID: 21300000, guid: 1f61c7ad54c6e1346b9e7aa819cbdc65, type: 3}
    - time: 0.25
      value: {fileID: 21300000, guid: 00ece979c72ba4d42bd9e59c4fb5ae93, type: 3}
    - time: 0.33333334
      value: {fileID: 21300000, guid: ea0ead7607a4b26409dadf1b1d8e56bb, type: 3}
    - time: 0.41666666
      value: {fileID: 21300000, guid: 22598e8d99aa0684d9ad16716649eb94, type: 3}
    - time: 0.5
      value: {fileID: 21300000, guid: 1882890c06965ae4ca1a390b15080232, type: 3}
    - time: 0.5833333
      value: {fileID: 21300000, guid: 5748d86dea017904bbc03cfc390d554e, type: 3}
    - time: 0.6666667
      value: {fileID: 21300000, guid: 6b12eff98245e1a408c3825ea2752e1c, type: 3}
    - time: 0.75
      value: {fileID: 21300000, guid: 7a01d4e199eaa1347a28ae439e8d2047, type: 3}
    - time: 0.8333333
      value: {fileID: 21300000, guid: ed7c95f08c9b73745ae2a7268cf8d6f0, type: 3}
    - time: 0.9166667
      value: {fileID: 21300000, guid: 877afa94929df31498f55bff42e36631, type: 3}
    - time: 1
      value: {fileID: 21300000, guid: abeb250466ae1ac46bd7088bece493f1, type: 3}
    - time: 1.0833334
      value: {fileID: 21300000, guid: 6513181a2139aab40b34163d648f4f7c, type: 3}
    - time: 1.1666666
      value: {fileID: 21300000, guid: d418615c52a759547a1923ab8996f231, type: 3}
    - time: 1.25
      value: {fileID: 21300000, guid: 82b1a8ac72f86fc43aefeba2074b4ece, type: 3}
    - time: 1.3333334
      value: {fileID: 21300000, guid: 9f21707ed1b8c6044becc5a7194c2655, type: 3}
    - time: 1.4166666
      value: {fileID: 21300000, guid: 1b6bbae6db56e4d409d6dd4a87f54bbb, type: 3}
    - time: 1.5
      value: {fileID: 21300000, guid: 428e97f674974274289cb1224bbaf664, type: 3}
    - time: 1.5833334
      value: {fileID: 21300000, guid: ee6075a079cae38428df4008718aec4c, type: 3}
    - time: 1.6666666
      value: {fileID: 21300000, guid: aa0d6af7a0cf15340aaa690f50a440f7, type: 3}
    - time: 1.75
      value: {fileID: 21300000, guid: 9658b8b25c7da2b49a67973534f427b4, type: 3}
    - time: 1.8333334
      value: {fileID: 21300000, guid: 6d582a2763f5d504d9c5522bff9dd0cf, type: 3}
    attribute: m_Sprite
    path: 
    classID: 212
    script: {fileID: 0}
  m_SampleRate: 12
  m_WrapMode: 0
  m_Bounds:
    m_Center: {x: 0, y: 0, z: 0}
    m_Extent: {x: 0, y: 0, z: 0}
  m_ClipBindingConstant:
    genericBindings:
    - serializedVersion: 2
      path: 0
      attribute: 0
      script: {fileID: 0}
      typeID: 212
      customType: 23
      isPPtrCurve: 1
    pptrCurveMapping:
    - {fileID: 21300000, guid: f8f90edc6917cef4e8b4e1a7c16bd5cf, type: 3}
    - {fileID: 21300000, guid: 647be05e02baf704491e91c82278595b, type: 3}
    - {fileID: 21300000, guid: 1f61c7ad54c6e1346b9e7aa819cbdc65, type: 3}
    - {fileID: 21300000, guid: 00ece979c72ba4d42bd9e59c4fb5ae93, type: 3}
    - {fileID: 21300000, guid: ea0ead7607a4b26409dadf1b1d8e56bb, type: 3}
    - {fileID: 21300000, guid: 22598e8d99aa0684d9ad16716649eb94, type: 3}
    - {fileID: 21300000, guid: 1882890c06965ae4ca1a390b15080232, type: 3}
    - {fileID: 21300000, guid: 5748d86dea017904bbc03cfc390d554e, type: 3}
    - {fileID: 21300000, guid: 6b12eff98245e1a408c3825ea2752e1c, type: 3}
    - {fileID: 21300000, guid: 7a01d4e199eaa1347a28ae439e8d2047, type: 3}
    - {fileID: 21300000, guid: ed7c95f08c9b73745ae2a7268cf8d6f0, type: 3}
    - {fileID: 21300000, guid: 877afa94929df31498f55bff42e36631, type: 3}
    - {fileID: 21300000, guid: abeb250466ae1ac46bd7088bece493f1, type: 3}
    - {fileID: 21300000, guid: 6513181a2139aab40b34163d648f4f7c, type: 3}
    - {fileID: 21300000, guid: d418615c52a759547a1923ab8996f231, type: 3}
    - {fileID: 21300000, guid: 82b1a8ac72f86fc43aefeba2074b4ece, type: 3}
    - {fileID: 21300000, guid: 9f21707ed1b8c6044becc5a7194c2655, type: 3}
    - {fileID: 21300000, guid: 1b6bbae6db56e4d409d6dd4a87f54bbb, type: 3}
    - {fileID: 21300000, guid: 428e97f674974274289cb1224bbaf664, type: 3}
    - {fileID: 21300000, guid: ee6075a079cae38428df4008718aec4c, type: 3}
    - {fileID: 21300000, guid: aa0d6af7a0cf15340aaa690f50a440f7, type: 3}
    - {fileID: 21300000, guid: 9658b8b25c7da2b49a67973534f427b4, type: 3}
    - {fileID: 21300000, guid: 6d582a2763f5d504d9c5522bff9dd0cf, type: 3}
  m_AnimationClipSettings:
    serializedVersion: 2
    m_AdditiveReferencePoseClip: {fileID: 0}
    m_AdditiveReferencePoseTime: 0
    m_StartTime: 0
    m_StopTime: 1.9166667
    m_OrientationOffsetY: 0
    m_Level: 0
    m_CycleOffset: 0
    m_HasAdditiveReferencePose: 0
    m_LoopTime: 0
    m_LoopBlend: 0
    m_LoopBlendOrientation: 0
    m_LoopBlendPositionY: 0
    m_LoopBlendPositionXZ: 0
    m_KeepOriginalOrientation: 0
    m_KeepOriginalPositionY: 1
    m_KeepOriginalPositionXZ: 0
    m_HeightFromFeet: 0
    m_Mirror: 0
  m_EditorCurves: []
  m_EulerEditorCurves: []
  m_HasGenericRootTransform: 0
  m_HasMotionFloatCurves: 0
  m_Events: []
