%YAML 1.1
%TAG !u! tag:unity3d.com,2011:
--- !u!74 &7400000
AnimationClip:
  m_ObjectHideFlags: 0
  m_CorrespondingSourceObject: {fileID: 0}
  m_PrefabInstance: {fileID: 0}
  m_PrefabAsset: {fileID: 0}
  m_Name: Timepire Drain Start
  serializedVersion: 6
  m_Legacy: 0
  m_Compressed: 0
  m_UseHighQualityCurve: 1
  m_RotationCurves: []
  m_CompressedRotationCurves: []
  m_EulerCurves: []
  m_PositionCurves: []
  m_ScaleCurves: []
  m_FloatCurves: []
  m_PPtrCurves:
  - curve:
    - time: 0
      value: {fileID: -7838219445006675449, guid: 738fc8ebca872eb41a1b31d678a702ec,
        type: 3}
    - time: 0.083333336
      value: {fileID: 1792233896115140126, guid: 738fc8ebca872eb41a1b31d678a702ec,
        type: 3}
    - time: 0.16666667
      value: {fileID: -6106295417350908400, guid: 738fc8ebca872eb41a1b31d678a702ec,
        type: 3}
    - time: 0.25
      value: {fileID: 3636105052866635237, guid: 738fc8ebca872eb41a1b31d678a702ec,
        type: 3}
    - time: 0.33333334
      value: {fileID: 7262072968854218800, guid: 738fc8ebca872eb41a1b31d678a702ec,
        type: 3}
    - time: 0.41666666
      value: {fileID: -8531984345992721780, guid: 738fc8ebca872eb41a1b31d678a702ec,
        type: 3}
    - time: 0.5
      value: {fileID: -3035216402099387364, guid: 738fc8ebca872eb41a1b31d678a702ec,
        type: 3}
    - time: 0.5833333
      value: {fileID: 3801888762897959295, guid: 738fc8ebca872eb41a1b31d678a702ec,
        type: 3}
    - time: 0.6666667
      value: {fileID: -8878294998868407295, guid: 738fc8ebca872eb41a1b31d678a702ec,
        type: 3}
    - time: 0.75
      value: {fileID: -8106673590451441368, guid: 738fc8ebca872eb41a1b31d678a702ec,
        type: 3}
    - time: 0.8333333
      value: {fileID: 8368111470761351251, guid: 738fc8ebca872eb41a1b31d678a702ec,
        type: 3}
    - time: 0.9166667
      value: {fileID: -7049249204476013284, guid: 738fc8ebca872eb41a1b31d678a702ec,
        type: 3}
    - time: 1
      value: {fileID: -8205577647698348804, guid: 738fc8ebca872eb41a1b31d678a702ec,
        type: 3}
    attribute: m_Sprite
    path: 
    classID: 212
    script: {fileID: 0}
  m_SampleRate: 12
  m_WrapMode: 0
  m_Bounds:
    m_Center: {x: 0, y: 0, z: 0}
    m_Extent: {x: 0, y: 0, z: 0}
  m_ClipBindingConstant:
    genericBindings:
    - serializedVersion: 2
      path: 0
      attribute: 0
      script: {fileID: 0}
      typeID: 212
      customType: 23
      isPPtrCurve: 1
    pptrCurveMapping:
    - {fileID: -7838219445006675449, guid: 738fc8ebca872eb41a1b31d678a702ec, type: 3}
    - {fileID: 1792233896115140126, guid: 738fc8ebca872eb41a1b31d678a702ec, type: 3}
    - {fileID: -6106295417350908400, guid: 738fc8ebca872eb41a1b31d678a702ec, type: 3}
    - {fileID: 3636105052866635237, guid: 738fc8ebca872eb41a1b31d678a702ec, type: 3}
    - {fileID: 7262072968854218800, guid: 738fc8ebca872eb41a1b31d678a702ec, type: 3}
    - {fileID: -8531984345992721780, guid: 738fc8ebca872eb41a1b31d678a702ec, type: 3}
    - {fileID: -3035216402099387364, guid: 738fc8ebca872eb41a1b31d678a702ec, type: 3}
    - {fileID: 3801888762897959295, guid: 738fc8ebca872eb41a1b31d678a702ec, type: 3}
    - {fileID: -8878294998868407295, guid: 738fc8ebca872eb41a1b31d678a702ec, type: 3}
    - {fileID: -8106673590451441368, guid: 738fc8ebca872eb41a1b31d678a702ec, type: 3}
    - {fileID: 8368111470761351251, guid: 738fc8ebca872eb41a1b31d678a702ec, type: 3}
    - {fileID: -7049249204476013284, guid: 738fc8ebca872eb41a1b31d678a702ec, type: 3}
    - {fileID: -8205577647698348804, guid: 738fc8ebca872eb41a1b31d678a702ec, type: 3}
  m_AnimationClipSettings:
    serializedVersion: 2
    m_AdditiveReferencePoseClip: {fileID: 0}
    m_AdditiveReferencePoseTime: 0
    m_StartTime: 0
    m_StopTime: 1.0833334
    m_OrientationOffsetY: 0
    m_Level: 0
    m_CycleOffset: 0
    m_HasAdditiveReferencePose: 0
    m_LoopTime: 0
    m_LoopBlend: 0
    m_LoopBlendOrientation: 0
    m_LoopBlendPositionY: 0
    m_LoopBlendPositionXZ: 0
    m_KeepOriginalOrientation: 0
    m_KeepOriginalPositionY: 1
    m_KeepOriginalPositionXZ: 0
    m_HeightFromFeet: 0
    m_Mirror: 0
  m_EditorCurves: []
  m_EulerEditorCurves: []
  m_HasGenericRootTransform: 0
  m_HasMotionFloatCurves: 0
  m_Events: []
