%YAML 1.1
%TAG !u! tag:unity3d.com,2011:
--- !u!74 &7400000
AnimationClip:
  m_ObjectHideFlags: 0
  m_CorrespondingSourceObject: {fileID: 0}
  m_PrefabInstance: {fileID: 0}
  m_PrefabAsset: {fileID: 0}
  m_Name: TimepireChronoCannonStartup
  serializedVersion: 6
  m_Legacy: 0
  m_Compressed: 0
  m_UseHighQualityCurve: 1
  m_RotationCurves: []
  m_CompressedRotationCurves: []
  m_EulerCurves: []
  m_PositionCurves: []
  m_ScaleCurves: []
  m_FloatCurves: []
  m_PPtrCurves:
  - curve:
    - time: 0
      value: {fileID: 7531438470660264579, guid: 2805fdf04f9d929498618ab2ae5d64e8,
        type: 3}
    - time: 0.083333336
      value: {fileID: -7894021787531308720, guid: 2805fdf04f9d929498618ab2ae5d64e8,
        type: 3}
    - time: 0.16666667
      value: {fileID: 6288313299569694035, guid: 2805fdf04f9d929498618ab2ae5d64e8,
        type: 3}
    - time: 0.25
      value: {fileID: -2894412070068159736, guid: 2805fdf04f9d929498618ab2ae5d64e8,
        type: 3}
    - time: 0.33333334
      value: {fileID: 9118070200535804140, guid: 2805fdf04f9d929498618ab2ae5d64e8,
        type: 3}
    - time: 0.41666666
      value: {fileID: 4557778589901920010, guid: 2805fdf04f9d929498618ab2ae5d64e8,
        type: 3}
    - time: 0.5
      value: {fileID: 2630503463269984793, guid: 2805fdf04f9d929498618ab2ae5d64e8,
        type: 3}
    - time: 0.5833333
      value: {fileID: -151870263092236673, guid: 2805fdf04f9d929498618ab2ae5d64e8,
        type: 3}
    - time: 0.6666667
      value: {fileID: 4030638000988891925, guid: 2805fdf04f9d929498618ab2ae5d64e8,
        type: 3}
    - time: 0.75
      value: {fileID: 3485248240205962382, guid: 2805fdf04f9d929498618ab2ae5d64e8,
        type: 3}
    - time: 0.8333333
      value: {fileID: -3376155353409726767, guid: 2805fdf04f9d929498618ab2ae5d64e8,
        type: 3}
    - time: 0.9166667
      value: {fileID: -1891558822382585834, guid: 2805fdf04f9d929498618ab2ae5d64e8,
        type: 3}
    - time: 1
      value: {fileID: 8098071499679740274, guid: 2805fdf04f9d929498618ab2ae5d64e8,
        type: 3}
    - time: 1.0833334
      value: {fileID: 8672480665254206350, guid: 2805fdf04f9d929498618ab2ae5d64e8,
        type: 3}
    - time: 1.1666666
      value: {fileID: 880020372959042944, guid: 2805fdf04f9d929498618ab2ae5d64e8,
        type: 3}
    - time: 1.25
      value: {fileID: -476562825857331587, guid: 2805fdf04f9d929498618ab2ae5d64e8,
        type: 3}
    - time: 1.3333334
      value: {fileID: -548586565914243328, guid: 2805fdf04f9d929498618ab2ae5d64e8,
        type: 3}
    - time: 1.4166666
      value: {fileID: 1601695605837718947, guid: 2805fdf04f9d929498618ab2ae5d64e8,
        type: 3}
    - time: 1.5
      value: {fileID: -6632383285969828057, guid: 2805fdf04f9d929498618ab2ae5d64e8,
        type: 3}
    - time: 1.5833334
      value: {fileID: 2986558284186691065, guid: 2805fdf04f9d929498618ab2ae5d64e8,
        type: 3}
    - time: 1.6666666
      value: {fileID: -3696724139232545831, guid: 2805fdf04f9d929498618ab2ae5d64e8,
        type: 3}
    - time: 1.75
      value: {fileID: 7990563197308524106, guid: 2805fdf04f9d929498618ab2ae5d64e8,
        type: 3}
    - time: 1.8333334
      value: {fileID: 802136226945338925, guid: 2805fdf04f9d929498618ab2ae5d64e8,
        type: 3}
    - time: 1.9166666
      value: {fileID: 7249138757470201852, guid: 2805fdf04f9d929498618ab2ae5d64e8,
        type: 3}
    - time: 2
      value: {fileID: 3887671451019446795, guid: 2805fdf04f9d929498618ab2ae5d64e8,
        type: 3}
    - time: 2.0833333
      value: {fileID: 1212204528954307971, guid: 2805fdf04f9d929498618ab2ae5d64e8,
        type: 3}
    - time: 2.1666667
      value: {fileID: 2024460174628769139, guid: 2805fdf04f9d929498618ab2ae5d64e8,
        type: 3}
    - time: 2.25
      value: {fileID: 4174943727804772517, guid: 2805fdf04f9d929498618ab2ae5d64e8,
        type: 3}
    attribute: m_Sprite
    path: 
    classID: 212
    script: {fileID: 0}
  m_SampleRate: 12
  m_WrapMode: 0
  m_Bounds:
    m_Center: {x: 0, y: 0, z: 0}
    m_Extent: {x: 0, y: 0, z: 0}
  m_ClipBindingConstant:
    genericBindings:
    - serializedVersion: 2
      path: 0
      attribute: 0
      script: {fileID: 0}
      typeID: 212
      customType: 23
      isPPtrCurve: 1
    pptrCurveMapping:
    - {fileID: 7531438470660264579, guid: 2805fdf04f9d929498618ab2ae5d64e8, type: 3}
    - {fileID: -7894021787531308720, guid: 2805fdf04f9d929498618ab2ae5d64e8, type: 3}
    - {fileID: 6288313299569694035, guid: 2805fdf04f9d929498618ab2ae5d64e8, type: 3}
    - {fileID: -2894412070068159736, guid: 2805fdf04f9d929498618ab2ae5d64e8, type: 3}
    - {fileID: 9118070200535804140, guid: 2805fdf04f9d929498618ab2ae5d64e8, type: 3}
    - {fileID: 4557778589901920010, guid: 2805fdf04f9d929498618ab2ae5d64e8, type: 3}
    - {fileID: 2630503463269984793, guid: 2805fdf04f9d929498618ab2ae5d64e8, type: 3}
    - {fileID: -151870263092236673, guid: 2805fdf04f9d929498618ab2ae5d64e8, type: 3}
    - {fileID: 4030638000988891925, guid: 2805fdf04f9d929498618ab2ae5d64e8, type: 3}
    - {fileID: 3485248240205962382, guid: 2805fdf04f9d929498618ab2ae5d64e8, type: 3}
    - {fileID: -3376155353409726767, guid: 2805fdf04f9d929498618ab2ae5d64e8, type: 3}
    - {fileID: -1891558822382585834, guid: 2805fdf04f9d929498618ab2ae5d64e8, type: 3}
    - {fileID: 8098071499679740274, guid: 2805fdf04f9d929498618ab2ae5d64e8, type: 3}
    - {fileID: 8672480665254206350, guid: 2805fdf04f9d929498618ab2ae5d64e8, type: 3}
    - {fileID: 880020372959042944, guid: 2805fdf04f9d929498618ab2ae5d64e8, type: 3}
    - {fileID: -476562825857331587, guid: 2805fdf04f9d929498618ab2ae5d64e8, type: 3}
    - {fileID: -548586565914243328, guid: 2805fdf04f9d929498618ab2ae5d64e8, type: 3}
    - {fileID: 1601695605837718947, guid: 2805fdf04f9d929498618ab2ae5d64e8, type: 3}
    - {fileID: -6632383285969828057, guid: 2805fdf04f9d929498618ab2ae5d64e8, type: 3}
    - {fileID: 2986558284186691065, guid: 2805fdf04f9d929498618ab2ae5d64e8, type: 3}
    - {fileID: -3696724139232545831, guid: 2805fdf04f9d929498618ab2ae5d64e8, type: 3}
    - {fileID: 7990563197308524106, guid: 2805fdf04f9d929498618ab2ae5d64e8, type: 3}
    - {fileID: 802136226945338925, guid: 2805fdf04f9d929498618ab2ae5d64e8, type: 3}
    - {fileID: 7249138757470201852, guid: 2805fdf04f9d929498618ab2ae5d64e8, type: 3}
    - {fileID: 3887671451019446795, guid: 2805fdf04f9d929498618ab2ae5d64e8, type: 3}
    - {fileID: 1212204528954307971, guid: 2805fdf04f9d929498618ab2ae5d64e8, type: 3}
    - {fileID: 2024460174628769139, guid: 2805fdf04f9d929498618ab2ae5d64e8, type: 3}
    - {fileID: 4174943727804772517, guid: 2805fdf04f9d929498618ab2ae5d64e8, type: 3}
  m_AnimationClipSettings:
    serializedVersion: 2
    m_AdditiveReferencePoseClip: {fileID: 0}
    m_AdditiveReferencePoseTime: 0
    m_StartTime: 0
    m_StopTime: 2.3333333
    m_OrientationOffsetY: 0
    m_Level: 0
    m_CycleOffset: 0
    m_HasAdditiveReferencePose: 0
    m_LoopTime: 0
    m_LoopBlend: 0
    m_LoopBlendOrientation: 0
    m_LoopBlendPositionY: 0
    m_LoopBlendPositionXZ: 0
    m_KeepOriginalOrientation: 0
    m_KeepOriginalPositionY: 1
    m_KeepOriginalPositionXZ: 0
    m_HeightFromFeet: 0
    m_Mirror: 0
  m_EditorCurves: []
  m_EulerEditorCurves: []
  m_HasGenericRootTransform: 0
  m_HasMotionFloatCurves: 0
  m_Events: []
