%YAML 1.1
%TAG !u! tag:unity3d.com,2011:
--- !u!74 &7400000
AnimationClip:
  m_ObjectHideFlags: 0
  m_CorrespondingSourceObject: {fileID: 0}
  m_PrefabInstance: {fileID: 0}
  m_PrefabAsset: {fileID: 0}
  m_Name: Timepire Drain End
  serializedVersion: 6
  m_Legacy: 0
  m_Compressed: 0
  m_UseHighQualityCurve: 1
  m_RotationCurves: []
  m_CompressedRotationCurves: []
  m_EulerCurves: []
  m_PositionCurves: []
  m_ScaleCurves: []
  m_FloatCurves: []
  m_PPtrCurves:
  - curve:
    - time: 0
      value: {fileID: -4486730293058628918, guid: 93c5d0f03bd7e484a9515b211ca5ebcd,
        type: 3}
    - time: 0.083333336
      value: {fileID: -6774767398412756193, guid: 93c5d0f03bd7e484a9515b211ca5ebcd,
        type: 3}
    - time: 0.16666667
      value: {fileID: 1077876710686808689, guid: 93c5d0f03bd7e484a9515b211ca5ebcd,
        type: 3}
    - time: 0.25
      value: {fileID: 4396776812013588738, guid: 93c5d0f03bd7e484a9515b211ca5ebcd,
        type: 3}
    - time: 0.33333334
      value: {fileID: -1532635162066305945, guid: 93c5d0f03bd7e484a9515b211ca5ebcd,
        type: 3}
    - time: 0.41666666
      value: {fileID: 1959778172926541684, guid: 93c5d0f03bd7e484a9515b211ca5ebcd,
        type: 3}
    - time: 0.5
      value: {fileID: 8587639469081732786, guid: 93c5d0f03bd7e484a9515b211ca5ebcd,
        type: 3}
    - time: 0.5833333
      value: {fileID: 3465613071324686535, guid: 93c5d0f03bd7e484a9515b211ca5ebcd,
        type: 3}
    - time: 0.6666667
      value: {fileID: -4950284953947814500, guid: 93c5d0f03bd7e484a9515b211ca5ebcd,
        type: 3}
    - time: 0.75
      value: {fileID: -1787059984154422418, guid: 93c5d0f03bd7e484a9515b211ca5ebcd,
        type: 3}
    - time: 0.8333333
      value: {fileID: 2657122107891311553, guid: 93c5d0f03bd7e484a9515b211ca5ebcd,
        type: 3}
    - time: 0.9166667
      value: {fileID: -2826119332698796957, guid: 93c5d0f03bd7e484a9515b211ca5ebcd,
        type: 3}
    attribute: m_Sprite
    path: 
    classID: 212
    script: {fileID: 0}
  m_SampleRate: 12
  m_WrapMode: 0
  m_Bounds:
    m_Center: {x: 0, y: 0, z: 0}
    m_Extent: {x: 0, y: 0, z: 0}
  m_ClipBindingConstant:
    genericBindings:
    - serializedVersion: 2
      path: 0
      attribute: 0
      script: {fileID: 0}
      typeID: 212
      customType: 23
      isPPtrCurve: 1
    pptrCurveMapping:
    - {fileID: -4486730293058628918, guid: 93c5d0f03bd7e484a9515b211ca5ebcd, type: 3}
    - {fileID: -6774767398412756193, guid: 93c5d0f03bd7e484a9515b211ca5ebcd, type: 3}
    - {fileID: 1077876710686808689, guid: 93c5d0f03bd7e484a9515b211ca5ebcd, type: 3}
    - {fileID: 4396776812013588738, guid: 93c5d0f03bd7e484a9515b211ca5ebcd, type: 3}
    - {fileID: -1532635162066305945, guid: 93c5d0f03bd7e484a9515b211ca5ebcd, type: 3}
    - {fileID: 1959778172926541684, guid: 93c5d0f03bd7e484a9515b211ca5ebcd, type: 3}
    - {fileID: 8587639469081732786, guid: 93c5d0f03bd7e484a9515b211ca5ebcd, type: 3}
    - {fileID: 3465613071324686535, guid: 93c5d0f03bd7e484a9515b211ca5ebcd, type: 3}
    - {fileID: -4950284953947814500, guid: 93c5d0f03bd7e484a9515b211ca5ebcd, type: 3}
    - {fileID: -1787059984154422418, guid: 93c5d0f03bd7e484a9515b211ca5ebcd, type: 3}
    - {fileID: 2657122107891311553, guid: 93c5d0f03bd7e484a9515b211ca5ebcd, type: 3}
    - {fileID: -2826119332698796957, guid: 93c5d0f03bd7e484a9515b211ca5ebcd, type: 3}
  m_AnimationClipSettings:
    serializedVersion: 2
    m_AdditiveReferencePoseClip: {fileID: 0}
    m_AdditiveReferencePoseTime: 0
    m_StartTime: 0
    m_StopTime: 1
    m_OrientationOffsetY: 0
    m_Level: 0
    m_CycleOffset: 0
    m_HasAdditiveReferencePose: 0
    m_LoopTime: 0
    m_LoopBlend: 0
    m_LoopBlendOrientation: 0
    m_LoopBlendPositionY: 0
    m_LoopBlendPositionXZ: 0
    m_KeepOriginalOrientation: 0
    m_KeepOriginalPositionY: 1
    m_KeepOriginalPositionXZ: 0
    m_HeightFromFeet: 0
    m_Mirror: 0
  m_EditorCurves: []
  m_EulerEditorCurves: []
  m_HasGenericRootTransform: 0
  m_HasMotionFloatCurves: 0
  m_Events: []
